,0,1,Dim : 1,Dim : 2,Dim : 3,Dim : 4,Dim : 5,Dim : 6,Dim : 7,Dim : 8,Dim : 9
0,1,2,-57.750986193293635,-18.984939833926546,-9.904621310660135,-9.905502896696419,-19.088599162354484,-63.26114081409572,858.100982600511,-1742.0831360453026,29061.005977640758
0,2,3,-51.63256833754275,-14.259314062943492,-5.831473517387855,-5.8322495242789545,-14.356326141375853,-57.0089830627446,857.9527632877077,-1777.4601820604612,-35454766.75357978
0,3,5,-45.51415048179187,-9.516907664433115,-1.7218921454524299,-1.7225682973687118,-9.607429071615138,-50.75701572865827,857.8014872842997,-1814.3166465997203,-1456346759.1357126
0,4,7,-39.39573262604099,-4.757720638395413,2.423884587556621,2.4233027283405124,-4.841907361259955,-44.505244021648906,857.6470480818806,-1852.7476774265579,-20513189494.948067
0,5,11,-33.277314770290104,0.018247015169612024,6.60561846404977,6.60512549518058,-0.05976040260824808,-38.25367334531198,857.4893336464083,-1892.856774545073,-159140950367.11102
0,6,13,-27.158896914539227,4.81099529626196,10.823071266437488,10.822661943509019,4.739012428284619,-32.00230930536553,857.3282260359484,-1934.7567258543627,-845606470209.9204
0,7,17,-21.040479058788343,9.620524204881631,15.076004777130258,15.075674011709015,9.554411771958797,-25.75115771828393,857.1636009885833,-1978.570668074652,-3461250989006.6675
0,8,19,-14.922061203037458,14.446833741028625,19.36418077853855,19.363923636189416,14.386438285902868,-19.500224620225847,856.9953274786918,-2024.4332900951565,-11708994572741.484
0,9,23,-8.803643347286574,19.289923904702942,23.68736105307284,23.68717275138473,19.23509264490676,-13.249516276256562,856.8232672398174,-2072.492197480571,-34254573133635.78
0,10,29,-2.6852254915356895,24.149794695904582,28.045307383143605,28.045183289755144,24.1003755414147,-6.999039189864592,856.6472742523331,-2122.909458459972,-89382651259944.1
0,11,31,3.433192364215188,29.026446114633547,32.437781551161315,32.437717181786475,28.982287685878095,-0.7488001127726623,856.4671941941172,-2175.863353308825,-212656995251176.6
0,12,37,9.551610219966065,33.91987816088983,36.86454533953644,36.864536355990225,33.88082980710848,5.501193944957042,856.2828638524483,-2231.5503506216837,-468856800590065.3
0,13,41,15.670028075716957,38.83009083467344,41.325360530679475,41.32540273890356,38.79600265263047,11.750935704523279,856.0941104953358,-2290.1873355600655,-969780046573800.8
0,14,43,21.788445931467834,43.75708413598438,45.81998890700088,45.82007825508931,43.72780698903459,18.00041760769186,855.900751200496,-2352.0141167469055,-1899859397974028.5
0,15,47,27.906863787218725,48.70085806482264,50.348192250911126,50.34832482713592,48.67624360233032,24.249631805807404,855.7025921401835,-2417.2962400658666,-3551926689397825.5
0,16,53,34.0252816429696,53.66141262118821,54.9097323448207,54.909904375657554,53.6413132982989,30.498570148510836,855.499427820094,-2486.3281392107024,-6375888412480349.0
0,17,59,40.14369949872048,58.63874780508111,59.50437097114008,59.504578819294025,58.62301690284635,36.74722417216248,855.2910402705467,-2559.436654416754,-1.10435368791541e+16
0,18,61,46.26211735447137,63.63286361650134,64.13186991227973,64.13211007471081,63.62135526235633,42.99558508797096,855.0771981881594,-2636.984952393588,-1.8533219856009732e+16
0,19,67,52.38053521022225,68.6437600554489,68.79199095065012,68.792260056599,68.6363292440431,49.243643769827614,854.8576560262305,-2719.3768820646405,-3.02386254551891e+16
0,20,71,58.49895306597314,73.67143712192376,73.48449586866172,73.48479067767545,73.6679397363044,55.491390741846764,854.6321530320353,-2807.0618023066863,-4.810650892633277e+16
0,21,73,64.617370921724,78.71589481592595,78.20914644872504,78.20946384868255,78.71618764907446,61.73881616561153,854.400412229251,-2900.539919468793,-7.48087937218414e+16
0,22,79,70.7357887774749,83.77713313745548,82.96570447325051,82.96604147838843,83.78107391417676,67.98590982712545,854.1621393437257,-3000.368174037385,-1.1395512080410365e+17
0,23,83,76.85420663322579,88.85515208651232,87.75393172464865,87.7542854735869,88.86259948567717,74.23266112346965,853.9170216707934,-3107.1667174008717,-1.703525976283916e+17
0,24,89,82.97262448897665,93.94995166309648,92.57358998532989,92.57395773909737,93.96076534023665,80.47905904916581,853.6647268823605,-3221.6260212542575,-2.5032021156883018e+17
0,25,97,89.09104234472754,99.06153186720796,97.42444103770474,97.42482017776494,99.0755724774644,86.7250921822448,853.4049017719626,-3344.5146637710177,-3.620661217572055e+17
0,26,101,95.20946020047843,104.18989269884678,102.30624666418365,102.30663469046037,104.20702192027059,92.97074867002078,853.1371709360126,-3476.687838256422,-5.161368283753961e+17
0,27,103,101.32787805622932,109.33503415801292,107.21876864717711,107.21916317608013,109.35511471521934,99.21601621457148,852.861135389447,-3619.0966315834116,-7.259480393818792e+17
0,28,107,107.44629591198019,114.49695624470637,112.1617687690956,112.16216753154625,114.51985193288172,105.46088205792356,852.5763711139855,-3772.7981212990067,-1.008407911461095e+18
0,29,109,113.56471376773108,119.67565895892714,117.1350088123496,117.13540965180648,119.70123466818856,111.70533296694407,852.282427537213,-3938.9663418761493,-1.3846442346614339e+18
0,30,113,119.68313162348197,124.87114230067527,122.13825055934954,122.13865142983428,124.89926404078349,117.9493552179375,851.9788259406976,-4118.904172172759,-1.8808480587332483e+18
0,31,127,125.80154947923283,130.0834062699507,127.17125579250595,127.17165475662868,130.1139411953757,124.19293458094837,851.6650577953561,-4314.056197746713,-2.529247223592592e+18
0,32,131,131.9199673349837,135.31245086675344,132.23378629422925,132.23418152121445,135.34526730209305,130.43605630376973,851.34058302228,-4526.022603262319,-3.3692242566193347e+18
0,33,137,138.03838519073463,140.55827609108348,137.32560384693,137.32599361064192,140.59324355683495,136.6787050956572,851.0048281772292,-4756.5741518107825,-4.4485941356499026e+18
0,34,139,144.1568030464855,145.8208819429409,142.44647023301857,142.44685290998723,145.85787118162506,142.9208651107484,850.6571845570139,-5007.668309554084,-5.825058488545176e+18
0,35,149,150.27522090223636,151.10026842232563,147.5961472349055,147.59652130235204,151.13915142496452,149.16251993118905,850.2970062259669,-5281.46657568851,-7.56785390810296e+18
0,36,151,156.39363875798728,156.39643552923766,152.77439663500127,152.7747606688638,156.4370855621847,155.4036525499634,849.9236079607258,-5580.353079311071,-9.759613204842066e+18
0,37,157,162.51205661373814,161.709383263677,157.98098021571633,157.98133288867547,161.75167489580025,161.6442453534315,849.5362631115322,-5906.9545063588885,-1.24984595998112e+19
0,38,163,168.630474469489,167.03911162564373,163.21565975946112,163.21599983896576,167.08292075586184,167.88428010357126,849.1342013782629,-6264.161421378533,-1.5900355075070843e+19
0,39,167,174.74889232523992,172.38562061513775,168.47819704864622,168.4785233949391,172.4308245003092,174.12373791992687,848.7166064994021,-6655.151050469215,-2.0101725350859723e+19
0,40,173,180.86731018099078,177.74891023215906,173.768353865682,173.76866542982546,177.7953875153241,180.36259926126274,848.2826138521699,-7083.411593330628,-2.526238524568978e+19
0,41,179,186.98572803674165,183.1289804767077,179.085891992979,179.0861878148806,183.1766112156831,186.60084390692285,847.8313079620159,-7552.76813393312,-3.1568789498714333e+19
0,42,181,193.1041458924925,188.5258313487837,184.43057321294762,184.4308524193858,188.57449704511055,192.83845093789574,847.3617199196917,-8067.410220914794,-3.923763549268367e+19
0,43,191,199.22256374824343,193.93946284838702,189.80215930799844,189.80242111064808,193.98904647663167,199.0753987175859,846.8728247041113,-8631.921190397057,-4.851984571064044e+19
0,44,193,205.3409816039943,199.36987497551763,195.20041206054185,195.2006557540002,199.42026101292527,205.31166487228995,846.3635384092175,-9251.309305496954,-5.970495919021403e+19
0,45,197,211.45939945974516,204.81706773017558,200.62509325298836,200.62531821280044,204.8681421866767,211.54722627137906,845.832715373059,-9931.040788401624,-7.312596270594871e+19
0,46,199,217.57781731549608,210.28104111236087,206.07596466774845,206.07617034843273,210.3326915609308,217.7820590071867,845.2791452072944,-10677.074822457094,-8.916459391254417e+19
0,47,211,223.69623517124694,215.76179512207347,211.55278808723256,211.5529740203069,215.813910729445,224.01613837460252,844.701549725333,-11495.90060331041,-1.0825715022020031e+20
0,48,223,229.8146530269978,221.2593297593134,217.0553252938512,217.05549108585808,221.31180131704187,230.24943885037155,844.0985797673272,-12394.57651973123,-1.30900838747439e+20
0,49,227,235.93307088274872,226.77364502408062,222.58333807001486,222.58348340054744,226.8263649799623,236.48193407209905,843.4688119202233,-13380.771546325652,-1.576607043068263e+20
0,50,229,242.0514887384996,232.30474091637518,228.13658819813395,228.13671281786145,232.35760340621854,242.71359681696123,842.8107451310883,-14462.808931942152,-1.891771740249368e+20
0,51,233,248.1699065942505,237.8526174361971,233.714837460619,233.71494118931255,237.90551831594672,248.9443989801217,842.1227972119214,-15649.712269156298,-2.2617425887968926e+20
0,52,239,254.28832445000137,243.41727458354632,239.3178476398805,239.3179303644387,243.47011146176015,255.17431155285354,841.4033012341598,-16951.25403180782,-2.6946845415583967e+20
0,53,241,260.40674230575223,248.99871235842284,244.94538051832888,244.9454421908035,249.0513846291021,261.4033046003667,840.6505018110983,-18378.006669150574,-3.1997838257294036e+20
0,54,251,266.52516016150315,254.59693076082672,250.5971978783746,250.59723851399627,254.64933963659863,267.63134723934166,839.8625512664247,-19941.39634676273,-3.787352256294705e+20
0,55,257,272.643578017254,260.21192979075784,256.2730615024282,256.2730811776319,260.26397833641175,273.8584076151684,839.0375056870931,-21653.759425951543,-4.468939905321018e+20
0,56,263,278.7619958730049,265.8437094482164,261.9727331729001,261.9727320233511,265.89530261459214,280.0844528788915,838.1733208587368,-23528.4017749739,-5.257456619401969e+20
0,57,269,284.8804137287558,271.49226973320225,267.6959746722008,267.69595289082,271.543314391432,286.3094491638597,837.2678480818407,-25579.661006980634,-6.167302896526346e+20
0,58,271,290.99883158450666,277.15761064571535,273.4425477827408,273.44250561773083,277.2080156218183,292.53336156208314,836.3188298668825,-27822.971741179776,-7.214510652969273e+20
0,59,277,297.1172494402575,282.83973218575585,279.21221428693053,279.2121520398009,282.8894082955855,298.7561541002943,835.3238955066512,-30274.933985300486,-8.416894430493291e+20
0,60,281,303.23566729600844,288.5386343533237,285.00473596718047,285.0046539907736,288.5874944378683,304.97778971571597,834.2805565239616,-32953.38473902653,-9.794213614192409e+20
0,61,283,309.3540851517593,294.25431714841875,290.8198746059011,290.81977330241796,294.30227610945497,311.19823023153407,833.1862019929703,-35877.472919654996,-1.1368346251716922e+21
0,62,293,315.47250300751017,299.9867805710412,296.6573919855029,296.65727180452825,300.03375540713995,317.4174363320769,832.0380937323073,-39067.73771282283,-1.3163475085380207e+21
0,63,307,321.5909208632611,305.73602462119095,302.51704988839634,302.51691132492505,305.7819344640768,323.6353675376992,830.8333613682379,-42546.19045273071,-1.520628642977085e+21
0,64,311,327.70933871901195,311.5020492988681,308.39861009699183,308.3984536894542,311.54681545013125,329.85198217937295,829.5689972660625,-46336.400137880606,-1.7526182548974204e+21
0,65,313,333.8277565747628,317.2848546040725,314.3018343937,314.3016607219872,317.3284005722342,336.0672373729828,828.2418513279684,-50463.582689930394,-2.015550820934703e+21
0,66,317,339.94617443051374,323.0844405368042,320.2264845609312,320.2262942444213,323.12669207473425,342.2810889933276,826.8486256555444,-54954.694064855634,-2.312979210598702e+21
0,67,331,346.0645922862646,328.9008070970633,326.17232238109597,326.1721160766795,328.94169223975115,348.49349164782797,825.3858690751725,-59838.52732719573,-2.648800388359578e+21
0,68,337,352.18301014201546,334.73395428484963,332.1391096366048,332.1388880367101,334.7734033875282,354.70439864993944,823.8499715245057,-65145.81379974832,-3.0272827495349564e+21
0,69,347,358.3014279977664,340.58388210016335,338.126608109868,338.1263719404877,340.62182787678563,360.91376199227045,822.237158298244,-70909.32840266291,-3.453095166666615e+21
0,70,349,364.41984585351724,346.4505905430044,344.13457958329633,344.13432960201186,346.48696810507334,367.1215323194068,820.5434841514244,-77163.99929747151,-3.9313378254389154e+21
0,71,353,370.5382637092681,352.33407961337275,350.1627858393,350.16252283330834,352.3688265091235,373.3276589004423,818.7648272584306,-83947.02195318094,-4.4675749315902843e+21
0,72,359,376.656681565019,358.23434931126843,356.2109886602896,356.2107134444282,358.2674055652041,379.5320896012137,816.8968830259395,-91297.97775313846,-5.067869372704054e+21
0,73,367,382.7750994207699,364.15139963669145,362.2789498286756,362.2786632434484,364.1827077894715,385.7347708562423,814.9351577580136,-99258.95726296915,-5.738819421235905e+21
0,74,373,388.89351727652075,370.08523058964175,368.36643112686846,368.3661340364716,370.1147357383233,391.93564764038103,812.8749621715529,-107874.6882814706,-6.487597567641876e+21
0,75,379,395.0119351322717,376.0358421701194,374.47319433727864,374.47288762762565,376.06349200875144,398.13466344016723,810.7114047603151,-117192.6687979369,-7.321991575013582e+21
0,76,383,401.13035298802254,382.00323437812443,380.5990012423167,380.5986858190647,382.02897923869494,404.331760224881,808.439385005722,-127263.30498097141,-8.250447849205762e+21
0,77,389,407.2487708437734,387.98740721365664,386.74361362439305,386.7432904109681,388.0112001073931,410.526878417309,806.0535864326553,-138140.05432543438,-9.282117221055667e+21
0,78,397,413.3671886995243,393.9883606767163,392.9067932659181,392.90646320154116,394.01015733573814,416.71995686421485,803.548469508463,-149879.5740857584,-1.042690323994399e+22
0,79,401,419.4856065552752,400.0060947673032,399.08830194930243,399.0879659870146,400.0258536866283,422.91093280651376,800.9182643833808,-162541.87512545107,-1.1695513080633265e+22
0,80,409,425.6040244110261,406.04060948541746,405.2879014569565,405.28756056164514,406.0582919653205,429.09974184915455,798.1569634705857,-176190.4813141929,-1.309951116804147e+22
0,81,419,431.72244226677697,412.0919048310591,411.5053535712907,411.5050087177147,412.1074750197839,435.2863179307059,795.2583138640886,-190892.59460552275,-1.4651375627366595e+22
0,82,421,437.84086012252783,418.159980804228,417.74042007471564,417.7400722455312,418.17340574105197,441.47059329264874,792.2158095926834,-206719.26592969242,-1.6364557669771514e+22
0,83,431,443.95927797827875,424.2448374049242,423.9928627496417,423.99251293342815,424.2560870635759,447.65249844837496,789.0226837081601,-223745.57203785726,-1.825354402666816e+22
0,84,433,450.07769583402956,430.34647463314775,430.26244337847936,430.2620925677646,430.3555219655777,453.831962151891,785.6719002059967,-242050.79843535757,-2.033392254850542e+22
0,85,439,456.19611368978053,436.4648924888986,436.54892374363914,436.54857293292554,436.4717134694026,460.00891136622715,782.156145776737,-261718.62854343228,-2.262245108686653e+22
0,86,443,462.3145315455314,442.6000909721769,442.8520656275315,442.8517158113213,442.60466464187243,466.18327123155296,778.4678213862757,-282837.3392302921,-2.513712978161885e+22
0,87,449,468.43294940128226,448.75207008298236,449.17163081256683,449.17128298338815,448.7543785946381,472.3549650329988,774.5990336832494,-305500.00285406853,-2.7897276877832117e+22
0,88,457,474.5513672570331,454.92082982131524,455.50738108115576,455.5070362275878,454.9208584845332,478.52391416818125,770.5415862317599,-329804.6959617401,-3.092360820018998e+22
0,89,461,480.669785112784,461.1063701871754,461.85907821570856,461.8587373204076,461.1041075139262,484.69003811443616,766.2869705676273,-355854.71478972456,-3.4238320415664694e+22
0,90,463,486.78820296853485,467.30869118056285,468.22648399863596,468.2261480363609,467.30412893107365,490.85325439575627,761.8263570763984,-383758.7977134128,-3.786517821830519e+22
0,91,467,492.9066208242858,473.52779280147774,474.60936021234824,474.60903014798635,473.5209260304733,497.0134785494353,757.1505856913102,-413631.3547945083,-4.1829605573105595e+22
0,92,479,499.0250386800367,479.76367504991987,481.00746863925593,481.0071454258484,479.75450215321683,503.1706240924169,752.2501564094305,-445592.70457662013,-4.615878115907345e+22
0,93,487,505.14345653578755,486.0163379258893,487.4205710617696,487.4202556385372,486.0048606873427,509.3246024873497,747.1152196241798,-479769.3182811469,-5.08817381548052e+22
0,94,491,511.2618743915384,492.28578142938613,493.8484292622995,493.84812255266854,492.2720050681893,515.4753231083479,741.735566272451,-516294.0715570746,-5.6029468513100815e+22
0,95,499,517.3802922472893,498.57200556041016,500.29080502325627,500.29050793288366,498.5559387787477,521.6226932064579,736.1006177945372,-555306.5039398998,-6.16350318744091e+22
0,96,503,523.4987101030401,504.87501031896164,506.7474601270504,506.74717354185,504.85666535001445,527.7666178748306,730.1994159050791,-596953.0861764736,-6.7733669272191515e+22
0,97,509,529.6171279587911,511.1947957050404,513.2181563560922,513.21788114026,511.174188361345,533.907000013598,724.0206121732447,-641387.495574152,-7.436292178662371e+22
0,98,521,535.735545814542,517.5313617186465,519.7026554927925,519.7023924868322,517.5085114408059,540.043740294458,717.5524574103531,-688770.899534222,-8.156275430642181e+22
0,99,523,541.8539636702928,523.8847083597799,526.2007193195615,526.2004693383109,523.8596382655285,546.1767371249622,710.7827908631537,-739272.2474311639,-8.937568456198403e+22
0,100,541,547.9723815260437,530.2548356284406,532.7121096188094,532.7118734494653,530.2275725620613,552.3058866125124,703.6990292109732,-793068.5710008924,-9.784691759647714e+22
0,101,547,554.0907993817946,536.6417435246286,539.2365881729473,539.2363665730915,536.6123181067228,558.4310825280594,696.2881553649423,-850345.2934027078,-1.0702448584497327e+23
0,102,557,560.2092172375455,543.0454320483441,545.7739167643854,545.7737104600097,543.0138787259554,564.5522162695091,688.5367070675131,-911296.5471212792,-1.1695939499525263e+23
0,103,563,566.3276350932964,549.4659011995867,552.323857175534,552.3236668590675,549.4322582966768,570.6691768248365,680.4307652904815,-976125.5008765608,-1.2770577580743579e+23
0,104,569,572.4460529490473,555.9031509783567,558.8861711888037,558.885997517137,555.8674607466343,576.781850734901,671.9559424297225,-1045044.6957111376,-1.3932104207319083e+23
0,105,571,578.5644708047981,562.357181384654,565.460620586605,565.4604641791158,562.3194900547567,582.8901220559698,663.0973702948548,-1118276.3904260767,-1.5186605489888068e+23
0,106,577,584.682888660549,568.8279924184787,572.0469671513484,572.0468285879282,568.7883502515083,588.9938723219478,653.8396878920421,-1196052.9165379528,-1.6540529350066904e+23
0,107,587,590.8013065162999,575.3155840798307,578.6449726654444,578.6448524845233,575.2740454192406,595.0929805063116,644.1670289981478,-1278617.0429312994,-1.8000703270329514e+23
0,108,593,596.9197243720508,581.8199563687101,585.2543989113034,585.2542976078761,581.776579692546,601.1873229837499,634.0630095244504,-1366222.350382327,-1.9574352733795286e+23
0,109,599,603.0381422278017,588.3411092851167,591.8750076713359,591.8749256949874,588.2959572586104,607.2767734915092,623.5107146681344,-1459133.6161313334,-2.1269120373847227e+23
0,110,601,609.1565600835526,594.8790428290506,598.5065607279522,598.5064984808838,594.8321823575669,613.3612030904452,612.4926858497682,-1557627.2086828216,-2.3093085853880002e+23
0,111,607,615.2749779393034,601.433757000512,605.1488198635631,605.1487776986168,601.3852592828474,619.4404801257809,600.9909074349787,-1661991.4930139265,-2.5054786497860815e+23
0,112,613,621.3933957950543,608.0052517995005,611.8015468605788,611.8015250792644,607.9551923815366,625.5144701875688,588.9867932385382,-1772527.2463733344,-2.7163238692773167e+23
0,113,617,627.5118136508052,614.5935272260164,618.46450350141,618.4645023519299,614.5419860547241,631.5830360708601,576.4611728090728,-1889548.084854474,-2.942796008440396e+23
0,114,619,633.6302315065561,621.1985832800598,625.1374515684671,625.1374712437423,621.1456447578586,637.6460377355783,563.3942774926037,-2013380.9009283404,-3.1858992588328705e+23
0,115,631,639.748649362307,627.8204199616303,631.8201528441604,631.8201934798564,627.7661730010989,643.7033322660998,549.7657262731362,-2144366.3121228926,-3.446692623834726e+23
0,116,641,645.8670672180579,634.4590372707281,638.5123691109006,638.5124307834521,634.4035753496686,649.75477383054,535.5545113885057,-2282859.1210375745,-3.7262923895023827e+23
0,117,643,651.9854850738087,641.1144352073534,645.213862151098,645.213944875736,641.057856424208,655.8002136397436,520.7389837196934,-2429228.7868830627,-4.025874683738983e+23
0,118,647,658.1039029295596,647.7866137715059,651.9243937471632,651.9244974759395,647.7290209011279,661.8394999059822,505.2968379518233,-2583859.9087379705,-4.3466781261277046e+23
0,119,653,664.2223207853104,654.4755729631858,658.6437256815068,658.6438503013195,654.4170735129616,667.8724778013574,489.20509750505437,-2747152.720715785,-4.6900065708159954e+23
0,120,659,670.3407386410614,661.181312782393,665.371619736539,665.3717650671596,661.1220190487178,673.8989894159091,472.44009923357515,-2919523.5992369326,-5.057231944880247e+23
0,121,661,676.4591564968123,667.9038332291275,672.1078376946704,672.1080034867683,667.8438623542341,679.9188737154291,454.97747789091886,-3101405.5826024404,-5.449797184642312e+23
0,122,673,682.5775743525631,674.6431343033893,678.8521413383114,678.8523272714796,674.582608332531,685.9319664989805,436.7921503598059,-3293248.9030672433,-5.86921927245157e+23
0,123,677,688.695992208314,681.3992160051785,685.6042924498726,685.6044981306537,681.3382619441614,691.9381003561251,417.8582996447263,-3495521.531612793,-6.317092376488896e+23
0,124,683,694.8144100640649,688.172078334495,692.3640528117643,692.3642777716761,688.1108282075675,697.9371046238532,398.1493586254787,-3708709.7356201806,-6.795091096191874e+23
0,125,691,700.9328279198157,694.9617212913388,699.1311842063972,699.1314278999582,694.9003121994309,703.9288053432197,377.6379935698699,-3933318.6496466165,-7.304973815943958e+23
0,126,701,707.0512457755667,701.7681448757098,705.9054484161816,705.9057102189371,701.706719055027,709.9130252156883,356.2960874037947,-4169872.8595096394,-7.848586169714033e+23
0,127,709,713.1696636313176,708.5913490876084,712.6866072235282,712.6868864300751,708.5300539685771,715.8895835591787,334.0947227369018,-4418916.9998850785,-8.42786461937684e+23
0,128,719,719.2880814870684,715.4313339270341,719.4744224108472,719.4747182328607,715.370322193602,721.8582962638208,311.00416464206165,-4681016.365626318,9.188733291714069e+23
0,129,727,725.4064993428193,722.2880993939872,726.2686557605491,726.2689673248077,722.2275290432746,727.8189757474137,286.99384318684633,-4956757.537014053,9.193356907833561e+23
0,130,733,731.5249171985702,729.1616454884677,733.0690690550446,733.0693954014557,729.1016798907725,733.7714309105922,262.03233571523293,-5246749.019147268,9.198238456357506e+23
0,131,739,737.6433350543211,736.0519722104755,739.8754240767441,739.8757641563701,735.9927801696318,739.7154670916965,236.08734887774443,-5551621.895687792,9.203390173717879e+23
0,132,743,743.761752910072,742.9590795600104,746.687482608058,746.6878352811417,742.9008353740986,745.6508860213494,209.12570040823778,-5872030.497172351,9.208824776323955e+23
0,133,751,749.8801707658229,749.8829675370729,753.5050064313965,753.5053704653869,749.8258510594837,751.5774857767383,181.11330064555148,-6208653.084107622,9.214555475507494e+23
0,134,757,755.9985886215737,756.8236361416625,760.3277573291706,760.3281313967485,756.7678328425144,757.4950607356035,152.0151337982265,-6562192.545065401,9.220595992814248e+23
0,135,761,762.1170064773246,763.7810853737795,767.1554970837906,767.1558797608938,763.7267864016869,763.4034015299322,121.79523895050903,-6933377.109996572,9.226960575647122e+23
0,136,769,768.2354243330755,770.755315233424,773.9879874776667,773.9883772415167,770.7027174776211,769.302294999357,90.41669080784936,-7322961.078984126,9.233664013266311e+23
0,137,773,774.3538421888264,777.7463257205957,780.8249902932098,780.8253855203365,777.6956318734115,775.1915241442608,57.84158018011067,-7731725.566657123,9.240721653151841e+23
0,138,787,780.4722600445773,784.7541168352947,787.66626731283,787.6666662770979,784.7055354549817,781.0708680785889,24.03099420069242,-8160479.262489029,9.248149417733902e+23
0,139,797,786.5906779003282,791.7786885775209,794.5115803189381,794.5119811895712,791.7324341514359,786.9401019823639,-11.055003720210664,-8610059.20720545,9.255963821496485e+23
0,140,809,792.709095756079,798.8200409472747,801.3606910939443,801.3610919335532,798.7763339554131,792.7989970539091,-47.457394210009284,-9081331.585527906,9.264181988459798e+23
0,141,811,798.8275136118299,805.8781739445556,808.2133614202592,808.2137601828656,805.8372409234388,798.6473204617748,-85.21822251756242,-9575192.53548184,9.272821670047046e+23
0,142,821,804.9459314675807,812.9530875693639,815.0693530802931,815.0697476093557,812.9151611762802,804.4848352963729,-124.38061936825699,-10092568.97449866,9.281901263341143e+23
0,143,823,811.0643493233317,820.0447818216995,821.9284278564569,821.9288158828969,820.0101008992954,810.3113005213158,-164.9888220921057,-10634419.442543183,9.291439829737004e+23
0,144,827,817.1827671790826,827.1532567015624,828.7903475311607,828.7907266713877,827.1220663427898,816.1264709244607,-207.08819602665523,-11201734.962499484,9.301457113995075e+23
0,145,829,823.3011850348335,834.2785122089527,835.6548738868152,835.6552416407533,834.2510638223674,821.9300970686604,-250.72525619649224,-11795539.918049663,9.311973563701833e+23
0,146,839,829.4196028905843,841.4205483438703,842.5217687058305,842.5221224549435,841.397099719284,827.72192524222,-295.94768927113387,-12416892.949281693,9.323010349143003e+23
0,147,853,835.5380207463352,848.5793651063152,849.3907937706176,849.391130775934,848.5601804808,833.5016974090576,-342.8043758030937,-13066887.866264086,9.334589383595268e+23
0,148,857,841.656438602086,855.7549624962875,856.2617108635866,856.2620282637266,855.7403126205334,839.2691511585729,-391.34541274790735,-13746654.580826677,9.346733344042347e+23
0,149,859,847.774856457837,862.9473405137871,863.1342817671481,863.1345765763484,862.9375027188128,845.02401965522,-441.6221362679095,-14457360.056788439,9.35946569232127e+23
0,150,863,853.8932743135879,870.156499158814,870.0082682637125,870.0085373698521,870.1517574230305,850.766031587786,-493.68714482154815,-15200209.278874805,9.372810696704804e+23
0,151,877,860.0116921693387,877.3824384313681,876.8834321356906,876.8836722983164,877.3830834479949,856.4949111183766,-547.5943225400256,-15976446.240568597,9.38679345392596e+23
0,152,881,866.1301100250896,884.6251583314497,883.7595351654923,883.7597430138454,884.6314875762837,862.2103778311048,-603.3988628930526,-16787354.95114021,9.401439911650596e+23
0,153,883,872.2485278808405,891.8846588590586,890.6363391355285,890.6365111665687,891.8969766585973,867.9121466804885,-661.1572926455062,-17634260.4621043,9.416776891404134e+23
0,154,887,878.3669457365913,899.1609400141947,897.5136058282094,897.513738404642,899.179557614111,873.5999279395508,-720.9274961067778,-18518529.91335181,9.432832111958489e+23
0,155,907,884.4853635923423,906.4540017968582,904.391097025946,904.3911863742466,906.479237430828,879.2734271476276,-782.7687396745978,-19441573.59920779,9.44963421318531e+23
0,156,911,890.6037814480932,913.763844207049,911.2685745111481,911.2686167195887,913.7960231659326,884.9323450578819,-846.7416966751302,-20404846.054666966,9.467212780381704e+23
0,157,919,896.722199303844,921.0904672447672,918.1458000662267,918.1457910829015,921.1299219461433,890.5763775845209,-912.9084725011189,-21409847.162060723,9.485598369074621e+23
0,158,929,902.8406171595949,928.4338709100126,925.0225354735918,925.0224711044425,928.4809409680656,896.20521574972,-981.3326300498795,-22458123.27841061,9.504822530310177e+23
0,159,937,908.9590350153458,935.7940552027854,931.8985425156543,931.8984184224961,935.849087498544,901.8185456302552,-1052.0792154629203,-23551268.383725233,9.52491783643415e+23
0,160,941,915.0774528710967,943.1710201230856,938.7735829748246,938.7733946733714,943.2343688750166,907.416048303837,-1125.2147841689825,-24690925.25049879,9.545917907369994e+23
0,161,947,921.1958707268476,950.564765670913,945.6474186335129,945.6471614914034,950.6367925058664,912.9973997951508,-1200.8074272322895,-25878786.634671286,9.567857437400733e+23
0,162,953,927.3142885825985,957.9752918462677,952.51981127413,952.5194805089533,958.0563658707757,918.5622710216078,-1278.9267980077893,-27116596.4883119,9.590772222461119e+23
0,163,967,933.4327064383493,965.4025986491498,959.390522679086,959.3901133564073,965.4930965210775,924.1103277387928,-1359.644139105181,-28406151.194288656,9.614699187946508e+23
0,164,971,939.5511242941002,972.8466860795593,966.259314630792,966.2588216621771,972.9469920801099,929.6412304856273,-1443.0323096635145,-29749300.823189072,9.639676417044935e+23
0,165,977,945.669542149851,980.307554137496,973.1259489116579,973.1253670527012,980.4180602435678,935.1546345292297,-1529.1658129381478,-31147950.412758138,9.665743179598894e+23
0,166,983,951.787960005602,987.7852028229601,979.9901873040943,979.9895111524427,987.9063087798568,940.6501898094888,-1618.1208242018524,-32604061.270121437,9.69293996150341e+23
0,167,991,957.9063778613529,995.2796321359514,986.8517915905118,986.8510155838903,995.411745530445,946.127540883336,-1709.9752189618566,-34119652.29706292,9.721308494646978e+23
0,168,997,964.0247957171036,1002.7908420764701,993.710523553321,993.7096419675593,1002.9343784102176,951.5863268687282,-1804.8086014946089,-35696801.33862834,9.750891787402045e+23
